…
    ##    country               year        population       
    ##  Length:4060        Min.   :1995   Min.   :1.129e+03  
    ##  Class :character   1st Qu.:1999   1st Qu.:6.029e+05  
    ##  Mode  :character   Median :2004   Median :5.319e+06  
    ##                     Mean   :2004   Mean   :3.003e+07  
    ##                     3rd Qu.:2009   3rd Qu.:1.855e+07  
    ##                     Max.   :2013   Max.   :1.386e+09

``` r
population%>%
  distinct(country)
```

    ## # A tibble: 219 x 1
    ##    country            
    ##    <chr>              
    ##  1 Afghanistan        
    ##  2 Albania            
    ##  3 Algeria            
    ##  4 American Samoa     
    ##  5 Andorra            
    ##  6 Angola             
    ##  7 Anguilla           
    ##  8 Antigua and Barbuda
    ##  9 Argentina          
    ## 10 Armenia            
    ## # ... with 209 more rows

Sekarang kita akan membuat versi utuh dari dataset ‘mydata’ dengan
menggunakan data seluruh negara pada dataset ‘who’ sebagai berikut:

``` r
# Menjalankan fungsi satu per satu
(tb1 <- gather(who, key = "key", value = "case", new_sp_m014:newrel_f65))
```

    ## # A tibble: 405,440 x 6
    ##    country     iso2  iso3   year key          case
    ##    <chr>       <chr> <chr> <int> <chr>       <int>
    ##  1 Afghanistan AF    AFG    1980 new_sp_m014    NA
    ##  2 Afghanistan AF    AFG    1981 new_sp_m014    NA
    ##  3 Afghanistan AF    AFG    1982 new_sp_m014    NA
    ##  4 Afghanistan AF    AFG    1983 new_sp_m014    NA
    ##  5 Afghanistan AF    AFG    1984 new_sp_m014    NA
    ##  6 Afghanistan AF    AFG    1985 new_sp_m014    NA
    ##  7 Afghanistan AF    AFG    1986 new_sp_m014    NA
    ##  8 Afghanistan AF    AFG    1987 new_sp_m014    NA
    ##  9 Afghanistan AF    AFG    1988 new_sp_m014    NA
    ## 10 Afghanistan AF    AFG    1989 new_sp_m014    NA
    ## # ... with 405,430 more rows

``` r
tb2 <- select(tb1, country, year, case)
 View(tb2)
(tb3 <- group_by(tb2, country, year))
```

    ## # A tibble: 405,440 x 3
    ## # Groups:   country, year [7,240]
    ##    country      year  case
    ##    <chr>       <int> <int>
    ##  1 Afghanistan  1980    NA
    ##  2 Afghanistan  1981    NA
    ##  3 Afghanistan  1982    NA
    ##  4 Afghanistan  1983    NA
    ##  5 Afghanistan  1984    NA
    ##  6 Afghanistan  1985    NA
    ##  7 Afghanistan  1986    NA
    ##  8 Afghanistan  1987    NA
    ##  9 Afghanistan  1988    NA
    ## 10 Afghanistan  1989    NA
    ## # ... with 405,430 more rows

``` r
(tb4 <- summarise(tb3, cases = sum(case, na.rm = TRUE)))
```

    ## # A tibble: 7,240 x 3
    ## # Groups:   country [219]
    ##    country      year cases
    ##    <chr>       <int> <int>
    ##  1 Afghanistan  1980     0
    ##  2 Afghanistan  1981     0
    ##  3 Afghanistan  1982     0
    ##  4 Afghanistan  1983     0
    ##  5 Afghanistan  1984     0
    ##  6 Afghanistan  1985     0
    ##  7 Afghanistan  1986     0
    ##  8 Afghanistan  1987     0
    ##  9 Afghanistan  1988     0
    ## 10 Afghanistan  1989     0
    ## # ... with 7,230 more rows

``` r
View(tb4)
(tb5 <- ungroup(tb4))
```

    ## # A tibble: 7,240 x 3
    ##    country      year cases
    ##    <chr>       <int> <int>
    ##  1 Afghanistan  1980     0
    ##  2 Afghanistan  1981     0
    ##  3 Afghanistan  1982     0
    ##  4 Afghanistan  1983     0
    ##  5 Afghanistan  1984     0
    ##  6 Afghanistan  1985     0
    ##  7 Afghanistan  1986     0
    ##  8 Afghanistan  1987     0
    ##  9 Afghanistan  1988     0
    ## 10 Afghanistan  1989     0
    ## # ... with 7,230 more rows

``` r
(tb6 <- left_join(tb5, population))
```

    ## Joining, by = c("country", "year")

    ## # A tibble: 7,240 x 4
    ##    country      year cases population
    ##    <chr>       <int> <int>      <int>
    ##  1 Afghanistan  1980     0         NA
    ##  2 Afghanistan  1981     0         NA
    ##  3 Afghanistan  1982     0         NA
    ##  4 Afghanistan  1983     0         NA
    ##  5 Afghanistan  1984     0         NA
    ##  6 Afghanistan  1985     0         NA
    ##  7 Afghanistan  1986     0         NA
    ##  8 Afghanistan  1987     0         NA
    ##  9 Afghanistan  1988     0         NA
    ## 10 Afghanistan  1989     0         NA
    ## # ... with 7,230 more rows

``` r
View(tb6)
(tb7 <- filter(tb6, !is.na(population)))
```

    ## # A tibble: 4,037 x 4
    ##    country      year cases population
    ##    <chr>       <int> <int>      <int>
    ##  1 Afghanistan  1995     0   17586073
    ##  2 Afghanistan  1996     0   18415307
    ##  3 Afghanistan  1997   128   19021226
    ##  4 Afghanistan  1998  1778   19496836
    ##  5 Afghanistan  1999   745   19987071
    ##  6 Afghanistan  2000  2666   20595360
    ##  7 Afghanistan  2001  4639   21347782
    ##  8 Afghanistan  2002  6509   22202806
    ##  9 Afghanistan  2003  6528   23116142
    ## 10 Afghanistan  2004  8245   24018682
    ## # ... with 4,027 more rows

``` r
(tb8 <- mutate(tb7, proportion = 100*cases/population))
```

    ## # A tibble: 4,037 x 5
    ##    country      year cases population proportion
    ##    <chr>       <int> <int>      <int>      <dbl>
    ##  1 Afghanistan  1995     0   17586073   0       
    ##  2 Afghanistan  1996     0   18415307   0       
    ##  3 Afghanistan  1997   128   19021226   0.000673
    ##  4 Afghanistan  1998  1778   19496836   0.00912 
    ##  5 Afghanistan  1999   745   19987071   0.00373 
    ##  6 Afghanistan  2000  2666   20595360   0.0129  
    ##  7 Afghanistan  2001  4639   21347782   0.0217  
    ##  8 Afghanistan  2002  6509   22202806   0.0293  
    ##  9 Afghanistan  2003  6528   23116142   0.0282  
    ## 10 Afghanistan  2004  8245   24018682   0.0343  
    ## # ... with 4,027 more rows
…
